index
…
gapminder %>% head(3)

## # A tibble: 3 x 6
##       country  year      pop continent lifeExp gdpPercap
##         <chr> <int>    <dbl>     <chr>   <dbl>     <dbl>
## 1 Afghanistan  1952  8425333      Asia  28.801  779.4453
## 2 Afghanistan  1957  9240934      Asia  30.332  820.8530
## 3 Afghanistan  1962 10267083      Asia  31.997  853.1007

gapminder %>% 
  group_by(country) %>% 
  #filter(country == "Sweden") %>% 
  summarize(mean(lifeExp)) 

## # A tibble: 142 x 2
##        country `mean(lifeExp)`
##          <chr>           <dbl>
##  1 Afghanistan        37.47883
##  2     Albania        68.43292
##  3     Algeria        59.03017
##  4      Angola        37.88350
##  5   Argentina        69.06042
##  6   Australia        74.66292
##  7     Austria        73.10325
##  8     Bahrain        65.60567
##  9  Bangladesh        49.83408
## 10     Belgium        73.64175
## # ... with 132 more rows
…
## # A tibble: 2 x 2
##   country   maxGDP
##     <chr>    <dbl>
## 1   Egypt 5581.181
## 2 Vietnam 2441.576

gapminder %>% 
  group_by(country) %>% 
  mutate(maxGDP = max(gdpPercap)) %>% 
  filter(gdpPercap == max(gdpPercap))

## # A tibble: 142 x 9
## # Groups:   country [142]
##        country  year       pop continent lifeExp  gdpPercap          gdp
##          <chr> <int>     <dbl>     <chr>   <dbl>      <dbl>        <dbl>
##  1 Afghanistan  1982  12881816      Asia  39.854   978.0114  12598563401
##  2     Albania  2007   3600523    Europe  76.423  5937.0295  21376411360
##  3     Algeria  2007  33333216    Africa  72.301  6223.3675 207444851958
##  4      Angola  1967   5247469    Africa  35.985  5522.7764  28980597822
##  5   Argentina  2007  40301927  Americas  75.320 12779.3796 515033625357
##  6   Australia  2007  20434176   Oceania  81.235 34435.3674 703658358894
##  7     Austria  2007   8199783    Europe  79.829 36126.4927 296229400691
##  8     Bahrain  2007    708573      Asia  75.635 29796.0483  21112675360
##  9  Bangladesh  2007 150448339      Asia  64.062  1391.2538 209311822134
## 10     Belgium  2007  10392226    Europe  79.441 33692.6051 350141166520
## # ... with 132 more rows, and 2 more variables: index <int>, maxGDP <dbl>
…
mpg

## # A tibble: 234 x 11
##    manufacturer      model displ  year   cyl      trans   drv   cty   hwy
##           <chr>      <chr> <dbl> <int> <int>      <chr> <chr> <int> <int>
##  1         audi         a4   1.8  1999     4   auto(l5)     f    18    29
##  2         audi         a4   1.8  1999     4 manual(m5)     f    21    29
##  3         audi         a4   2.0  2008     4 manual(m6)     f    20    31
##  4         audi         a4   2.0  2008     4   auto(av)     f    21    30
##  5         audi         a4   2.8  1999     6   auto(l5)     f    16    26
##  6         audi         a4   2.8  1999     6 manual(m5)     f    18    26
##  7         audi         a4   3.1  2008     6   auto(av)     f    18    27
##  8         audi a4 quattro   1.8  1999     4 manual(m5)     4    18    26
##  9         audi a4 quattro   1.8  1999     4   auto(l5)     4    16    25
## 10         audi a4 quattro   2.0  2008     4 manual(m6)     4    20    28
## # ... with 224 more rows, and 2 more variables: fl <chr>, class <chr>
…
